<?xml version="1.0"?>
<svg xmlns="http://www.w3.org/2000/svg" xmlns:xlink="http://www.w3.org/1999/xlink" version="1.1" id="Capa_1" x="0px" y="0px" viewBox="0 0 58 58" style="enable-background:new 0 0 58 58;" xml:space="preserve" width="512px" height="512px" class=""><g><g id="XMLID_9_">
	<path id="XMLID_114_" style="fill:#8798CC" d="M54.783,50H3.217C1.44,50,0,48.56,0,46.783V11.217C0,9.44,1.44,8,3.217,8h51.566   C56.56,8,58,9.44,58,11.217v35.566C58,48.56,56.56,50,54.783,50" data-original="#8798CC" class=""/>
	<rect id="XMLID_113_" y="13" style="fill:#556180;" width="58" height="8" data-original="#556180" class=""/>
	<path id="XMLID_112_" style="fill:#B0D3F0;" d="M15,26H6c-0.553,0-1,0.448-1,1s0.447,1,1,1h9c0.553,0,1-0.448,1-1S15.553,26,15,26" data-original="#B0D3F0" class=""/>
	<path id="XMLID_111_" style="fill:#B0D3F0;" d="M29,27c0-0.552-0.447-1-1-1h-9c-0.553,0-1,0.448-1,1s0.447,1,1,1h9   C28.553,28,29,27.552,29,27" data-original="#B0D3F0" class=""/>
	<path id="XMLID_110_" style="fill:#B0D3F0;" d="M7,31H6c-0.553,0-1,0.448-1,1s0.447,1,1,1h1c0.553,0,1-0.448,1-1S7.553,31,7,31" data-original="#B0D3F0" class=""/>
	<path id="XMLID_109_" style="fill:#B0D3F0;" d="M13,31h-2c-0.553,0-1,0.448-1,1s0.447,1,1,1h2c0.553,0,1-0.448,1-1S13.553,31,13,31   " data-original="#B0D3F0" class=""/>
	<path id="XMLID_108_" style="fill:#B0D3F0;" d="M18,31h-1c-0.553,0-1,0.448-1,1s0.447,1,1,1h1c0.553,0,1-0.448,1-1S18.553,31,18,31   " data-original="#B0D3F0" class=""/>
	<path id="XMLID_107_" style="fill:#B0D3F0;" d="M24,31h-2c-0.553,0-1,0.448-1,1s0.447,1,1,1h2c0.553,0,1-0.448,1-1S24.553,31,24,31   " data-original="#B0D3F0" class=""/>
	<path id="XMLID_106_" style="fill:#B0D3F0;" d="M27.29,31.29C27.109,31.48,27,31.74,27,32c0,0.26,0.109,0.52,0.29,0.71   C27.478,32.89,27.728,33,28,33c0.26,0,0.519-0.11,0.71-0.29C28.89,32.52,29,32.26,29,32c0-0.26-0.11-0.52-0.29-0.71   C28.34,30.92,27.66,30.92,27.29,31.29" data-original="#B0D3F0" class=""/>
	<rect id="XMLID_105_" x="36" y="34" style="fill:#8798CC" width="16" height="10" data-original="#91BAE1" class="active-path" data-old_color="#91BAE1"/>
</g></g> </svg>
